{
"items":
[
{
    "title": "Test",
    "id": "25064",
    "url": "https://staging.caymanmag.com/jobs/test",
    "date_published": "Monday, Jul 22, 2019",
    "posted": "2019-07-22T17:00:00-05:00",
    "date": {
        "y": 0,
        "m": 2,
        "d": 18,
        "h": 11,
        "i": 39,
        "s": 35,
        "f": 0.678204,
        "weekday": 0,
        "weekday_behavior": 0,
        "first_last_day_of": 0,
        "invert": 1,
        "days": 79,
        "special_type": 0,
        "special_amount": 0,
        "have_weekday_relative": 0,
        "have_special_relative": 0
    },
    "industry": "Accounting & Finance",
    "featured": false,
    "type": "Full-time",
    "comp": "0",
    "currency": "KYD",
    "companyName": "Public Works Department",
    "area": "West Bay",
    "companyUrl": "https://staging.caymanmag.com/profile/public-works-department",
    "companyLogo": "https://staging.caymanmag.com/images/cayman_islands_government_logo.png",
    "shortDescription": "Testt",
    "jobDescription": "<p>Test</p>",
    "jobRequirements": "<p>Test</p>"
},

{
    "title": "Test copy",
    "id": "26341",
    "url": "https://staging.caymanmag.com/jobs/test-1",
    "date_published": "Monday, Jul 22, 2019",
    "posted": "2019-07-22T17:00:00-05:00",
    "date": {
        "y": 0,
        "m": 2,
        "d": 18,
        "h": 11,
        "i": 39,
        "s": 35,
        "f": 0.699066,
        "weekday": 0,
        "weekday_behavior": 0,
        "first_last_day_of": 0,
        "invert": 1,
        "days": 79,
        "special_type": 0,
        "special_amount": 0,
        "have_weekday_relative": 0,
        "have_special_relative": 0
    },
    "industry": "Accounting & Finance",
    "featured": false,
    "type": "Full-time",
    "comp": "0",
    "currency": "KYD",
    "companyName": "Public Works Department",
    "area": "West Bay",
    "companyUrl": "https://staging.caymanmag.com/profile/public-works-department",
    "companyLogo": "https://staging.caymanmag.com/images/cayman_islands_government_logo.png",
    "shortDescription": "Testt",
    "jobDescription": "<p>Test</p>",
    "jobRequirements": "<p>Test</p>"
},

{
    "title": "Test copy",
    "id": "26357",
    "url": "https://staging.caymanmag.com/jobs/test-2",
    "date_published": "Monday, Jul 22, 2019",
    "posted": "2019-07-22T17:00:00-05:00",
    "date": {
        "y": 0,
        "m": 2,
        "d": 18,
        "h": 11,
        "i": 39,
        "s": 35,
        "f": 0.706306,
        "weekday": 0,
        "weekday_behavior": 0,
        "first_last_day_of": 0,
        "invert": 1,
        "days": 79,
        "special_type": 0,
        "special_amount": 0,
        "have_weekday_relative": 0,
        "have_special_relative": 0
    },
    "industry": "Accounting & Finance",
    "featured": false,
    "type": "Full-time",
    "comp": "0",
    "currency": "KYD",
    "companyName": "Public Works Department",
    "area": "West Bay",
    "companyUrl": "https://staging.caymanmag.com/profile/public-works-department",
    "companyLogo": "https://staging.caymanmag.com/images/cayman_islands_government_logo.png",
    "shortDescription": "Testt",
    "jobDescription": "<p>Test</p>",
    "jobRequirements": "<p>Test</p>"
},

{
    "title": "Communications Manager",
    "id": "20827",
    "url": "https://staging.caymanmag.com/jobs/communications-manager",
    "date_published": "Sunday, Jul 14, 2019",
    "posted": "2019-07-14T18:48:00-05:00",
    "date": {
        "y": 0,
        "m": 2,
        "d": 26,
        "h": 9,
        "i": 51,
        "s": 35,
        "f": 0.71236,
        "weekday": 0,
        "weekday_behavior": 0,
        "first_last_day_of": 0,
        "invert": 1,
        "days": 87,
        "special_type": 0,
        "special_amount": 0,
        "have_weekday_relative": 0,
        "have_special_relative": 0
    },
    "industry": "Government",
    "featured": true,
    "type": "Full-time",
    "comp": "67,656",
    "currency": "KYD",
    "companyName": "RCIPS",
    "area": "George Town",
    "companyUrl": "https://staging.caymanmag.com/profile/rcips",
    "companyLogo": "https://staging.caymanmag.com/images/RCIPS_logo.jpg",
    "shortDescription": "The Royal Cayman Islands Police Service is currently seeking to employ a Communications Manager to coordinate all public relations and communication strategies of the RCIPS.",
    "jobDescription": "<p>The Royal Cayman Islands Police Service (RCIPS) is currently seeking to employ a <strong>Communications Manager</strong> to coordinate all public relations and communication strategies and plans to proactively promote the positive public image and reputation of the RCIPS. The post holder must ensure that public relations and communication strategies and programmes of RCIPS are developed in a manner that has due regard to key trends in public concerns, and relevant professional opinions, and articulates the vision and values of RCIPS, its goals and objectives.</p>\n<p><strong>Responsibilities will include, but not be limited to:</strong></p>\n<ul><li>Develop and manage communication programmes and strategies from conception through implementation to ensure they are properly researched and planned, to meet agreed objectives.</li><li>Advise, organise and lead media liaison, crime campaigns, community engagement and initiatives, preparing communication, press releases and news conferences through print, broadcast and social media.</li><li>Maintain daily liaison with the media as appropriate, responding to telephone and email queries from internal and external stakeholders.</li><li>Identify, research and advise on trends in public opinion, and implications for communications between the RCIPS and the public.</li></ul>",
    "jobRequirements": "<ul><li>The post holder should have Bachelor’s Degree in communications, public relations, journalism or business administration and</li><li>A minimum of 3-5 years’ experience in a police service or law enforcement agency <strong><u>or</u></strong></li><li>An Associate’s Degree with 5-7 years’ relevant work experience.</li></ul><p><strong>Other <strong>Essential</strong> skills and experience include:</strong></p>\n<ul><li>Strong time management, leadership, communication, interpersonal, analytical, problem solving and technical skills.</li><li>High degree of technical presentation skills with proven ability to interact and present to diverse groups with varying levels of experience.</li><li>Sound knowledge and experience in communications and public relations with proven experience developing communication strategies though collaboration with media representatives/agencies.</li><li>Experience using Microsoft Office applications, including Outlook, Word, Excel and Access.</li><li>Awareness of the operations of the Cayman Islands Government, its personnel, processes and systems.</li><li>Politically neutral.</li></ul><p>Preference will be given to Caymanians.</p>\n<p>Applicants <strong><u>must</u></strong> complete the Government Application Form <strong><u>and</u></strong> submit their Resume</p>\n<p><strong><u>with</u></strong> two (2) professional references to:</p>\n<p><u>Chief Human Resources Manager</u></p>\n<p>Royal Cayman Islands Police Service</p>\n<p>P.O. Box 909, CAYMAN ISLANDS KY1-1103</p>"
},
{
    "title": "Communications Manager copy",
    "id": "26339",
    "url": "https://staging.caymanmag.com/jobs/communications-manager-1",
    "date_published": "Sunday, Jul 14, 2019",
    "posted": "2019-07-14T18:48:00-05:00",
    "date": {
        "y": 0,
        "m": 2,
        "d": 26,
        "h": 9,
        "i": 51,
        "s": 35,
        "f": 0.719342,
        "weekday": 0,
        "weekday_behavior": 0,
        "first_last_day_of": 0,
        "invert": 1,
        "days": 87,
        "special_type": 0,
        "special_amount": 0,
        "have_weekday_relative": 0,
        "have_special_relative": 0
    },
    "industry": "Government",
    "featured": true,
    "type": "Full-time",
    "comp": "0",
    "currency": "KYD",
    "companyName": "RCIPS",
    "area": "George Town",
    "companyUrl": "https://staging.caymanmag.com/profile/rcips",
    "companyLogo": "https://staging.caymanmag.com/images/RCIPS_logo.jpg",
    "shortDescription": "The Royal Cayman Islands Police Service is currently seeking to employ a Communications Manager to coordinate all public relations and communication strategies of the RCIPS.",
    "jobDescription": "<p>The Royal Cayman Islands Police Service (RCIPS) is currently seeking to employ a <strong>Communications Manager</strong> to coordinate all public relations and communication strategies and plans to proactively promote the positive public image and reputation of the RCIPS. The post holder must ensure that public relations and communication strategies and programmes of RCIPS are developed in a manner that has due regard to key trends in public concerns, and relevant professional opinions, and articulates the vision and values of RCIPS, its goals and objectives.</p>\n<p><strong>Responsibilities will include, but not be limited to:</strong></p>\n<ul><li>Develop and manage communication programmes and strategies from conception through implementation to ensure they are properly researched and planned, to meet agreed objectives.</li><li>Advise, organise and lead media liaison, crime campaigns, community engagement and initiatives, preparing communication, press releases and news conferences through print, broadcast and social media.</li><li>Maintain daily liaison with the media as appropriate, responding to telephone and email queries from internal and external stakeholders.</li><li>Identify, research and advise on trends in public opinion, and implications for communications between the RCIPS and the public.</li></ul>",
    "jobRequirements": "<ul><li>The post holder should have Bachelor’s Degree in communications, public relations, journalism or business administration and</li><li>A minimum of 3-5 years’ experience in a police service or law enforcement agency <strong><u>or</u></strong></li><li>An Associate’s Degree with 5-7 years’ relevant work experience.</li></ul><p><strong>Other <strong>Essential</strong> skills and experience include:</strong></p>\n<ul><li>Strong time management, leadership, communication, interpersonal, analytical, problem solving and technical skills.</li><li>High degree of technical presentation skills with proven ability to interact and present to diverse groups with varying levels of experience.</li><li>Sound knowledge and experience in communications and public relations with proven experience developing communication strategies though collaboration with media representatives/agencies.</li><li>Experience using Microsoft Office applications, including Outlook, Word, Excel and Access.</li><li>Awareness of the operations of the Cayman Islands Government, its personnel, processes and systems.</li><li>Politically neutral.</li></ul><p>Preference will be given to Caymanians.</p>\n<p>Applicants <strong><u>must</u></strong> complete the Government Application Form <strong><u>and</u></strong> submit their Resume</p>\n<p><strong><u>with</u></strong> two (2) professional references to:</p>\n<p><u>Chief Human Resources Manager</u></p>\n<p>Royal Cayman Islands Police Service</p>\n<p>P.O. Box 909, CAYMAN ISLANDS KY1-1103</p>"
},
{
    "title": "Communications Manager copy",
    "id": "26355",
    "url": "https://staging.caymanmag.com/jobs/communications-manager-2",
    "date_published": "Sunday, Jul 14, 2019",
    "posted": "2019-07-14T18:48:00-05:00",
    "date": {
        "y": 0,
        "m": 2,
        "d": 26,
        "h": 9,
        "i": 51,
        "s": 35,
        "f": 0.725329,
        "weekday": 0,
        "weekday_behavior": 0,
        "first_last_day_of": 0,
        "invert": 1,
        "days": 87,
        "special_type": 0,
        "special_amount": 0,
        "have_weekday_relative": 0,
        "have_special_relative": 0
    },
    "industry": "Government",
    "featured": true,
    "type": "Full-time",
    "comp": "0",
    "currency": "KYD",
    "companyName": "RCIPS",
    "area": "George Town",
    "companyUrl": "https://staging.caymanmag.com/profile/rcips",
    "companyLogo": "https://staging.caymanmag.com/images/RCIPS_logo.jpg",
    "shortDescription": "The Royal Cayman Islands Police Service is currently seeking to employ a Communications Manager to coordinate all public relations and communication strategies of the RCIPS.",
    "jobDescription": "<p>The Royal Cayman Islands Police Service (RCIPS) is currently seeking to employ a <strong>Communications Manager</strong> to coordinate all public relations and communication strategies and plans to proactively promote the positive public image and reputation of the RCIPS. The post holder must ensure that public relations and communication strategies and programmes of RCIPS are developed in a manner that has due regard to key trends in public concerns, and relevant professional opinions, and articulates the vision and values of RCIPS, its goals and objectives.</p>\n<p><strong>Responsibilities will include, but not be limited to:</strong></p>\n<ul><li>Develop and manage communication programmes and strategies from conception through implementation to ensure they are properly researched and planned, to meet agreed objectives.</li><li>Advise, organise and lead media liaison, crime campaigns, community engagement and initiatives, preparing communication, press releases and news conferences through print, broadcast and social media.</li><li>Maintain daily liaison with the media as appropriate, responding to telephone and email queries from internal and external stakeholders.</li><li>Identify, research and advise on trends in public opinion, and implications for communications between the RCIPS and the public.</li></ul>",
    "jobRequirements": "<ul><li>The post holder should have Bachelor’s Degree in communications, public relations, journalism or business administration and</li><li>A minimum of 3-5 years’ experience in a police service or law enforcement agency <strong><u>or</u></strong></li><li>An Associate’s Degree with 5-7 years’ relevant work experience.</li></ul><p><strong>Other <strong>Essential</strong> skills and experience include:</strong></p>\n<ul><li>Strong time management, leadership, communication, interpersonal, analytical, problem solving and technical skills.</li><li>High degree of technical presentation skills with proven ability to interact and present to diverse groups with varying levels of experience.</li><li>Sound knowledge and experience in communications and public relations with proven experience developing communication strategies though collaboration with media representatives/agencies.</li><li>Experience using Microsoft Office applications, including Outlook, Word, Excel and Access.</li><li>Awareness of the operations of the Cayman Islands Government, its personnel, processes and systems.</li><li>Politically neutral.</li></ul><p>Preference will be given to Caymanians.</p>\n<p>Applicants <strong><u>must</u></strong> complete the Government Application Form <strong><u>and</u></strong> submit their Resume</p>\n<p><strong><u>with</u></strong> two (2) professional references to:</p>\n<p><u>Chief Human Resources Manager</u></p>\n<p>Royal Cayman Islands Police Service</p>\n<p>P.O. Box 909, CAYMAN ISLANDS KY1-1103</p>"
},
{
    "title": "Structural Engineer",
    "id": "20823",
    "url": "https://staging.caymanmag.com/jobs/structural-engineer",
    "date_published": "Sunday, Jul 14, 2019",
    "posted": "2019-07-14T18:37:00-05:00",
    "date": {
        "y": 0,
        "m": 2,
        "d": 26,
        "h": 10,
        "i": 2,
        "s": 35,
        "f": 0.73086,
        "weekday": 0,
        "weekday_behavior": 0,
        "first_last_day_of": 0,
        "invert": 1,
        "days": 87,
        "special_type": 0,
        "special_amount": 0,
        "have_weekday_relative": 0,
        "have_special_relative": 0
    },
    "industry": "Government",
    "featured": false,
    "type": "Full-time",
    "comp": "89,940",
    "currency": "KYD",
    "companyName": "Public Works Department",
    "area": "George Town",
    "companyUrl": "https://staging.caymanmag.com/profile/public-works-department",
    "companyLogo": "https://staging.caymanmag.com/images/cayman_islands_government_logo.png",
    "shortDescription": "The position of Structural Engineer will provide viable structural designs and site monitoring of the structural aspects of projects throughout the construction process.",
    "jobDescription": "<p>The position of Structural Engineer will provide viable structural designs and technical advice, expertise, the provision of documentation relating to structural designs, structural calculations, site investigation and site monitoring of the structural aspects of projects throughout the construction process.</p>",
    "jobRequirements": "<p>The post holder must possess a Bachelor’s Degree in Structural Engineering from a recognized/accredited institution and be a registered (chartered member) engineer of a professional institution of architects either in the US, UK or Canada. A minimum of seven (7) years of relevant, Structural Engineer level experience. Previous work experience within the Caribbean will be considered as an asset. He/she should have knowledge of constructional techniques, building methodologies, codes, and knowledge in the use of BIM software. Additionally, significant and broad experience in structural design / construction of projects and structural engineering in the design of reinforced concrete, steel, masonry, and timber as applied to construction of buildings and structures and the management of all phases of building projects, including client liaison, design, tendering procedures, contract management, construction methods and financial/schedule control is required. A valid Drivers License is required.</p>"
},
{
    "title": "Structural Engineer copy",
    "id": "26337",
    "url": "https://staging.caymanmag.com/jobs/structural-engineer-1",
    "date_published": "Sunday, Jul 14, 2019",
    "posted": "2019-07-14T18:37:00-05:00",
    "date": {
        "y": 0,
        "m": 2,
        "d": 26,
        "h": 10,
        "i": 2,
        "s": 35,
        "f": 0.736623,
        "weekday": 0,
        "weekday_behavior": 0,
        "first_last_day_of": 0,
        "invert": 1,
        "days": 87,
        "special_type": 0,
        "special_amount": 0,
        "have_weekday_relative": 0,
        "have_special_relative": 0
    },
    "industry": "Government",
    "featured": false,
    "type": "Full-time",
    "comp": "0",
    "currency": "KYD",
    "companyName": "Public Works Department",
    "area": "George Town",
    "companyUrl": "https://staging.caymanmag.com/profile/public-works-department",
    "companyLogo": "https://staging.caymanmag.com/images/cayman_islands_government_logo.png",
    "shortDescription": "The position of Structural Engineer will provide viable structural designs and site monitoring of the structural aspects of projects throughout the construction process.",
    "jobDescription": "<p>The position of Structural Engineer will provide viable structural designs and technical advice, expertise, the provision of documentation relating to structural designs, structural calculations, site investigation and site monitoring of the structural aspects of projects throughout the construction process.</p>",
    "jobRequirements": "<p>The post holder must possess a Bachelor’s Degree in Structural Engineering from a recognized/accredited institution and be a registered (chartered member) engineer of a professional institution of architects either in the US, UK or Canada. A minimum of seven (7) years of relevant, Structural Engineer level experience. Previous work experience within the Caribbean will be considered as an asset. He/she should have knowledge of constructional techniques, building methodologies, codes, and knowledge in the use of BIM software. Additionally, significant and broad experience in structural design / construction of projects and structural engineering in the design of reinforced concrete, steel, masonry, and timber as applied to construction of buildings and structures and the management of all phases of building projects, including client liaison, design, tendering procedures, contract management, construction methods and financial/schedule control is required. A valid Drivers License is required.</p>"
},
{
    "title": "Structural Engineer copy",
    "id": "26353",
    "url": "https://staging.caymanmag.com/jobs/structural-engineer-2",
    "date_published": "Sunday, Jul 14, 2019",
    "posted": "2019-07-14T18:37:00-05:00",
    "date": {
        "y": 0,
        "m": 2,
        "d": 26,
        "h": 10,
        "i": 2,
        "s": 35,
        "f": 0.74247,
        "weekday": 0,
        "weekday_behavior": 0,
        "first_last_day_of": 0,
        "invert": 1,
        "days": 87,
        "special_type": 0,
        "special_amount": 0,
        "have_weekday_relative": 0,
        "have_special_relative": 0
    },
    "industry": "Government",
    "featured": false,
    "type": "Full-time",
    "comp": "0",
    "currency": "KYD",
    "companyName": "Public Works Department",
    "area": "George Town",
    "companyUrl": "https://staging.caymanmag.com/profile/public-works-department",
    "companyLogo": "https://staging.caymanmag.com/images/cayman_islands_government_logo.png",
    "shortDescription": "The position of Structural Engineer will provide viable structural designs and site monitoring of the structural aspects of projects throughout the construction process.",
    "jobDescription": "<p>The position of Structural Engineer will provide viable structural designs and technical advice, expertise, the provision of documentation relating to structural designs, structural calculations, site investigation and site monitoring of the structural aspects of projects throughout the construction process.</p>",
    "jobRequirements": "<p>The post holder must possess a Bachelor’s Degree in Structural Engineering from a recognized/accredited institution and be a registered (chartered member) engineer of a professional institution of architects either in the US, UK or Canada. A minimum of seven (7) years of relevant, Structural Engineer level experience. Previous work experience within the Caribbean will be considered as an asset. He/she should have knowledge of constructional techniques, building methodologies, codes, and knowledge in the use of BIM software. Additionally, significant and broad experience in structural design / construction of projects and structural engineering in the design of reinforced concrete, steel, masonry, and timber as applied to construction of buildings and structures and the management of all phases of building projects, including client liaison, design, tendering procedures, contract management, construction methods and financial/schedule control is required. A valid Drivers License is required.</p>"
},
{
    "title": "Head of Finance",
    "id": "20821",
    "url": "https://staging.caymanmag.com/jobs/head-of-finance",
    "date_published": "Sunday, Jul 14, 2019",
    "posted": "2019-07-14T17:40:00-05:00",
    "date": {
        "y": 0,
        "m": 2,
        "d": 26,
        "h": 10,
        "i": 59,
        "s": 35,
        "f": 0.747971,
        "weekday": 0,
        "weekday_behavior": 0,
        "first_last_day_of": 0,
        "invert": 1,
        "days": 87,
        "special_type": 0,
        "special_amount": 0,
        "have_weekday_relative": 0,
        "have_special_relative": 0
    },
    "industry": "Accounting & Finance",
    "featured": false,
    "type": "Full-time",
    "comp": "140,000",
    "currency": "USD",
    "companyName": "Affinity Recruitment Ltd.",
    "area": "George Town",
    "companyUrl": "https://staging.caymanmag.com/profile/affinity-recruitment-ltd",
    "companyLogo": "https://staging.caymanmag.com/images/affinityrecruitmentcaymanlogo.png",
    "shortDescription": "Affinity Recruitment has been engaged by a highly reputable organization in the legal industry to assist in their search for the Head of Finance to join their expanding team.",
    "jobDescription": "<p>Affinity Recruitment has been engaged by a highly reputable organization in the legal industry to assist in their search for The Head of Finance to join their fast-paced and expanding team.</p>\n<p>Reporting to the Finance &amp; Operations Manager, the successful candidate will primarily focus on the general ledger, accounts payable, management reporting and cash management functions.</p>\n<p>Duties:</p>\n<ul><li>Review and submit statutory, regulatory and management reporting, including budgeting and forecasting;</li><li>Guide decisions by establishing, monitoring, and enforcing policies and procedures;</li><li>Prepare documentation and analysis to respond to internal and external auditor requests;</li><li>Assist with preparing annual Cayman budget. Assist in setting annual budget targets, lead the departments through the process and prepare the annual financial budget for presentation to the Finance &amp; Operations Manager;</li><li>Assist with budget objectives by scheduling expenditures; analyzing variances; initiating corrective actions;</li><li>Collaborate with the Global Finance Team and provide fact-based recommendations which improve profitability, operating efficiency and effectiveness;</li><li>Prepare special reports by collecting, analyzing, and summarizing information and trends;</li><li>Comply with local legislation; anticipating future legislation; enforcing adherence to requirements; filing financial reports; advising management on needed actions;</li><li>Fulfill accounting and financial operational requirements by scheduling and assigning employees; following up on work results and performance;</li><li>Perform full range of personnel management responsibilities including performance management; succession planning and coaching of finance team;</li><li>Maintain professional and technical knowledge by attending educational workshops; reviewing professional publications; establishing personal networks; participating in professional societies;</li><li>Protects operations by keeping financial information and plans confidential.</li></ul>",
    "jobRequirements": "<ul><li>An internationally recognized professional accounting qualification (e.g. ACCA, CA, ACA, CPA or equivalent) with a minimum of four years post qualification;</li><li>Knowledge of generally accepted accounting principles;</li><li>At least three years of prior management experience with strong managing skills, with the ability to create clear goals, foster accountability, and ownership, while encouraging delegation at appropriate levels;</li><li>Ability to maintain professional demeanor and positive attitude in a fast paced, continually changing business environment;</li><li>Strong problem resolution skills and experience in dealing directly with internal clients to manage and meet expectations for delivery of services;</li><li>Ability to streamline functions and have a passion to learn and grow;</li><li>Strong knowledge of internal control requirements for transactional processing required;</li><li>Proven organizational and time management skills, along with a strong attention to detail;</li><li>Ability to identify and re-mediate internal control deficiencies;</li><li>Proficient written and oral communication skills;</li><li>Law firm experience desirable, but not essential;</li></ul><p>In return a highly competitive remuneration is on offer commensurate with experience and qualifications, salary in the range of USD $ 110,000 – USD $ 140,000 plus a full range of premium benefits.</p>"
}
],
    "meta": {
        "pagination": {
            "total": 24,
            "count": 10,
            "per_page": 10,
            "current_page": 1,
            "total_pages": 3,
            "links": {
                "next": "https://staging.caymanmag.com/api/jobs.json?order=postDate+desc&page=2"
            }
        }
    }
}